…
You can install nycomplaints from
[GitHub](https://github.com/kjhealy/nycomplaints) with:

``` r
remotes::install_github("kjhealy/nycomplaints@main")
```

## Loading the Data

``` r
library(tidyverse) # Optional but strongly recommended
library(nycomplaints)

nycomplaints
#> # A tibble: 240,027 × 11
#>    unique_key   account opendate   closedate  complaint_type    descriptor zip  
#>    <chr>        <chr>   <date>     <date>     <chr>             <chr>      <chr>
#>  1 NYCC01506329 NYCC01  2015-01-02 2015-01-14 Aging             Senior Ce… 11220
#>  2 NYCC01506331 NYCC01  2015-01-04 2016-03-25 Aging             <NA>       11373
#>  3 NYCC01506332 NYCC01  2015-01-04 2016-03-25 Aging             <NA>       11373
#>  4 NYCC01506333 NYCC01  2015-01-04 2017-02-23 Health            Rats/Rode… 10006
#>  5 NYCC01506334 NYCC01  2015-01-05 2015-01-15 Land Use and Zon… <NA>       10003
#>  6 NYCC01506335 NYCC01  2015-01-06 2016-02-09 Transportation    Pot Holes  10002
#>  7 NYCC01506338 NYCC01  2015-01-06 2015-03-17 Transportation    Parking P… 10002
#>  8 NYCC01506342 NYCC01  2015-01-08 2015-01-08 Economy/Jobs      Business … 11355
#>  9 NYCC01506343 NYCC01  2015-01-08 2015-01-08 Immigration       Visas      10002
#> 10 NYCC01506345 NYCC01  2015-01-08 2015-01-08 Housing and Buil… Seeking a… 10013
#> # … with 240,017 more rows, and 4 more variables: borough <chr>, city <chr>,
#> #   council_dist <chr>, community_board <chr>
```
